{
  "project_info": {
    "project_number": "27915725484",
    "firebase_url": "https://qisucuschallange.firebaseio.com",
    "project_id": "qisucuschallange",
    "storage_bucket": "qisucuschallange.appspot.com"
  },
  "client": [
    {
      "client_info": {
        "mobilesdk_app_id": "1:27915725484:android:d44da28de23d7ca1460d09",
        "android_client_info": {
          "package_name": "com.gustu.qiscuschallange"
        }
      },
      "oauth_client": [
        {
          "client_id": "27915725484-vg1upj01kpmou6o93aldiolttg159c7m.apps.googleusercontent.com",
          "client_type": 1,
          "android_info": {
            "package_name": "com.gustu.qiscuschallange",
            "certificate_hash": "031b018233df45ae60708661aba0f0dc04bcd654"
          }
        },
        {
          "client_id": "27915725484-l5i5vi9eu90sl09mcu0167ih0vttrmrd.apps.googleusercontent.com",
          "client_type": 3
        }
      ],
      "api_key": [
        {
          "current_key": "AIzaSyAb86Iy-_nZ_e1CLMlJdyOHOSUFH3Gv8I8"
        }
      ],
      "services": {
        "appinvite_service": {
          "other_platform_oauth_client": [
            {
              "client_id": "27915725484-l5i5vi9eu90sl09mcu0167ih0vttrmrd.apps.googleusercontent.com",
              "client_type": 3
            }
          ]
        }
      }
    }
  ],
  "configuration_version": "1"
}